Homework Week 3
…
4b. Let’s make it even simpler. Trim the data down so the only species we are looking at are in the family “Laminariaceae”. After that, you can ditch the FAMILY column.

Lam_data <- data3 |>
  filter(FAMILY == "Laminariaceae")

4c. For each species is there only one measurement per species transect each year? Or do we need to worry…… Note, this is a common data check you should be doing if you have a large complex data set!

Lam_data |>
  group_by(SPECIES, YEAR,TRANSECT) |>
    summarise(Present= n_distinct(PERCENT_COVER))

`summarise()` has grouped output by 'SPECIES', 'YEAR'. You can override using
the `.groups` argument.

# A tibble: 160 × 4
# Groups:   SPECIES, YEAR [15]
   SPECIES             YEAR TRANSECT      Present
   <chr>              <dbl> <chr>           <int>
 1 Laminaria digitata  2014 1                   2
 2 Laminaria digitata  2014 2                   1
 3 Laminaria digitata  2014 3                   1
 4 Laminaria digitata  2014 4                   1
 5 Laminaria digitata  2015 1                   2
 6 Laminaria digitata  2015 2                   1
 7 Laminaria digitata  2015 3                   2
 8 Laminaria digitata  2015 4                   2
 9 Laminaria digitata  2015 Canoe Beach 1       1
10 Laminaria digitata  2016 1                   2
# ℹ 150 more rows
…
