Pipes
…
Selecting columns

select() is a function to choose or exclude columns

# Choose columns

select(surveys, plot_id, species_id, weight)

# A tibble: 34,786 × 3
   plot_id species_id weight
     <dbl> <chr>       <dbl>
 1       2 NL             NA
 2       2 NL             NA
 3       2 NL             NA
 4       2 NL             NA
 5       2 NL             NA
 6       2 NL             NA
 7       2 NL             NA
 8       2 NL             NA
 9       2 NL            218
10       2 NL             NA
# ℹ 34,776 more rows

# or

surveys |> select(plot_id, species_id, weight)

# A tibble: 34,786 × 3
   plot_id species_id weight
     <dbl> <chr>       <dbl>
 1       2 NL             NA
 2       2 NL             NA
 3       2 NL             NA
 4       2 NL             NA
 5       2 NL             NA
 6       2 NL             NA
 7       2 NL             NA
 8       2 NL             NA
 9       2 NL            218
10       2 NL             NA
# ℹ 34,776 more rows

# or exclude

select(surveys, -record_id, -species_id)

# A tibble: 34,786 × 11
   month   day  year plot_id sex   hindfoot_length weight genus   species  taxa 
   <dbl> <dbl> <dbl>   <dbl> <chr>           <dbl>  <dbl> <chr>   <chr>    <chr>
 1     7    16  1977       2 M                  32     NA Neotoma albigula Rode…
 2     8    19  1977       2 M                  31     NA Neotoma albigula Rode…
 3     9    13  1977       2 <NA>               NA     NA Neotoma albigula Rode…
 4    10    16  1977       2 <NA>               NA     NA Neotoma albigula Rode…
 5    11    12  1977       2 <NA>               NA     NA Neotoma albigula Rode…
 6    11    12  1977       2 <NA>               NA     NA Neotoma albigula Rode…
 7    12    10  1977       2 <NA>               NA     NA Neotoma albigula Rode…
 8     1     8  1978       2 <NA>               NA     NA Neotoma albigula Rode…
 9     2    18  1978       2 M                  NA    218 Neotoma albigula Rode…
10     3    11  1978       2 <NA>               NA     NA Neotoma albigula Rode…
# ℹ 34,776 more rows
# ℹ 1 more variable: plot_type <chr>

# or

surveys |> select(plot_id, -record_id, -species_id)

# A tibble: 34,786 × 1
   plot_id
     <dbl>
 1       2
 2       2
 3       2
 4       2
 5       2
 6       2
 7       2
 8       2
 9       2
10       2
# ℹ 34,776 more rows

select() is to choose columns. But filter() will choose with a specific criterion

filter(surveys, year == 1995)

# A tibble: 1,180 × 13
   record_id month   day  year plot_id species_id sex   hindfoot_length weight
       <dbl> <dbl> <dbl> <dbl>   <dbl> <chr>      <chr>           <dbl>  <dbl>
 1     22314     6     7  1995       2 NL         M                  34     NA
 2     22728     9    23  1995       2 NL         F                  32    165
 3     22899    10    28  1995       2 NL         F                  32    171
 4     23032    12     2  1995       2 NL         F                  33     NA
 5     22003     1    11  1995       2 DM         M                  37     41
 6     22042     2     4  1995       2 DM         F                  36     45
 7     22044     2     4  1995       2 DM         M                  37     46
 8     22105     3     4  1995       2 DM         F                  37     49
 9     22109     3     4  1995       2 DM         M                  37     46
10     22168     4     1  1995       2 DM         M                  36     48
# ℹ 1,170 more rows
# ℹ 4 more variables: genus <chr>, species <chr>, taxa <chr>, plot_type <chr>

#or

surveys |> 
  filter(year == 1995)

# A tibble: 1,180 × 13
   record_id month   day  year plot_id species_id sex   hindfoot_length weight
       <dbl> <dbl> <dbl> <dbl>   <dbl> <chr>      <chr>           <dbl>  <dbl>
 1     22314     6     7  1995       2 NL         M                  34     NA
 2     22728     9    23  1995       2 NL         F                  32    165
 3     22899    10    28  1995       2 NL         F                  32    171
 4     23032    12     2  1995       2 NL         F                  33     NA
 5     22003     1    11  1995       2 DM         M                  37     41
 6     22042     2     4  1995       2 DM         F                  36     45
 7     22044     2     4  1995       2 DM         M                  37     46
 8     22105     3     4  1995       2 DM         F                  37     49
 9     22109     3     4  1995       2 DM         M                  37     46
10     22168     4     1  1995       2 DM         M                  36     48
# ℹ 1,170 more rows
# ℹ 4 more variables: genus <chr>, species <chr>, taxa <chr>, plot_type <chr>
…
#or

survey_sml <- surveys |>
  filter(weight < 5) |>
  select(species_id, sex, weight)

Exercise

Using pipes, subset the surveys data to include animals collected before 1995 and retain only the columns year, sex, and weight.

surveys |>
  filter(year < 1995) |>
  select(year, sex, weight)

# A tibble: 21,486 × 3
    year sex   weight
   <dbl> <chr>  <dbl>
 1  1977 M         NA
 2  1977 M         NA
 3  1977 <NA>      NA
 4  1977 <NA>      NA
 5  1977 <NA>      NA
 6  1977 <NA>      NA
 7  1977 <NA>      NA
 8  1978 <NA>      NA
 9  1978 M        218
10  1978 <NA>      NA
# ℹ 21,476 more rows

Mutate

Mutate() uis useful to create new columns based on values in existing columns.

surveys |>
  mutate(weight_Kg = weight / 10000)

# A tibble: 34,786 × 14
   record_id month   day  year plot_id species_id sex   hindfoot_length weight
       <dbl> <dbl> <dbl> <dbl>   <dbl> <chr>      <chr>           <dbl>  <dbl>
 1         1     7    16  1977       2 NL         M                  32     NA
 2        72     8    19  1977       2 NL         M                  31     NA
 3       224     9    13  1977       2 NL         <NA>               NA     NA
 4       266    10    16  1977       2 NL         <NA>               NA     NA
 5       349    11    12  1977       2 NL         <NA>               NA     NA
 6       363    11    12  1977       2 NL         <NA>               NA     NA
 7       435    12    10  1977       2 NL         <NA>               NA     NA
 8       506     1     8  1978       2 NL         <NA>               NA     NA
 9       588     2    18  1978       2 NL         M                  NA    218
10       661     3    11  1978       2 NL         <NA>               NA     NA
# ℹ 34,776 more rows
# ℹ 5 more variables: genus <chr>, species <chr>, taxa <chr>, plot_type <chr>,
#   weight_Kg <dbl>

you can also create a second column based on the first new column.

surveys |>
  mutate(weight_kg = weight / 1000,
         weight_lb = weight_kg * 2.2)

# A tibble: 34,786 × 15
   record_id month   day  year plot_id species_id sex   hindfoot_length weight
       <dbl> <dbl> <dbl> <dbl>   <dbl> <chr>      <chr>           <dbl>  <dbl>
 1         1     7    16  1977       2 NL         M                  32     NA
 2        72     8    19  1977       2 NL         M                  31     NA
 3       224     9    13  1977       2 NL         <NA>               NA     NA
 4       266    10    16  1977       2 NL         <NA>               NA     NA
 5       349    11    12  1977       2 NL         <NA>               NA     NA
 6       363    11    12  1977       2 NL         <NA>               NA     NA
 7       435    12    10  1977       2 NL         <NA>               NA     NA
 8       506     1     8  1978       2 NL         <NA>               NA     NA
 9       588     2    18  1978       2 NL         M                  NA    218
10       661     3    11  1978       2 NL         <NA>               NA     NA
# ℹ 34,776 more rows
# ℹ 6 more variables: genus <chr>, species <chr>, taxa <chr>, plot_type <chr>,
#   weight_kg <dbl>, weight_lb <dbl>
…
Exercise

Create a new data frame from the surveys data that meets the following criteria: contains only the species_id column and a new column called C containing the hindfoot_length values (currently in mm) converted to centimeters. In this hindfoot_cm column, there are no NAs and all values are less than 3.

surveys |> 
  mutate(hindfoot_cm = hindfoot_length/100 ) |>
  filter(!is.na(hindfoot_cm)) |>
  select(species_id)

# A tibble: 31,438 × 1
   species_id
   <chr>     
 1 NL        
 2 NL        
 3 NL        
 4 NL        
 5 NL        
 6 NL        
 7 NL        
 8 NL        
 9 NL        
10 NL        
# ℹ 31,428 more rows
…
We can use na.rm to calculate the mean. So the estimation will made without NA but that does not mean it would remove NA. The we should filter ans delete them.

surveys |>
  filter(!is.na(weight)) |>
  group_by(sex, species_id) |>
  summarize(mean_weight = mean(weight))|>  print(n= 5)

`summarise()` has grouped output by 'sex'. You can override using the `.groups`
argument.

# A tibble: 64 × 3
# Groups:   sex [3]
  sex   species_id mean_weight
  <chr> <chr>            <dbl>
1 F     BA                9.16
2 F     DM               41.6 
3 F     DO               48.5 
4 F     DS              118.  
5 F     NL              154.  
# ℹ 59 more rows

# similar to head you can use print to get only few rows

We can also summarise multiple variables at the same time

surveys |>
   filter(!is.na(weight)) |>
  group_by(sex, species_id) |>
  summarize( mean_weight = mean(weight),
             min_weight = min(weight))

`summarise()` has grouped output by 'sex'. You can override using the `.groups`
argument.

# A tibble: 64 × 4
# Groups:   sex [3]
   sex   species_id mean_weight min_weight
   <chr> <chr>            <dbl>      <dbl>
 1 F     BA                9.16          6
 2 F     DM               41.6          10
 3 F     DO               48.5          12
 4 F     DS              118.           45
 5 F     NL              154.           32
 6 F     OL               31.1          10
 7 F     OT               24.8           5
 8 F     OX               21            20
 9 F     PB               30.2          12
10 F     PE               22.8          11
# ℹ 54 more rows

We can sort at the end using any columns

# ascending
surveys %>%
  filter(!is.na(weight)) %>%
  group_by(sex, species_id) %>%
  summarize(mean_weight = mean(weight),
            min_weight = min(weight)) %>%
  arrange(min_weight)

`summarise()` has grouped output by 'sex'. You can override using the `.groups`
argument.

# A tibble: 64 × 4
# Groups:   sex [3]
   sex   species_id mean_weight min_weight
   <chr> <chr>            <dbl>      <dbl>
 1 F     PF                7.97          4
 2 F     RM               11.1           4
 3 M     PF                7.89          4
 4 M     PP               17.2           4
 5 M     RM               10.1           4
 6 <NA>  PF                6             4
 7 F     OT               24.8           5
 8 F     PP               17.2           5
 9 F     BA                9.16          6
10 M     BA                7.36          6
# ℹ 54 more rows

# or descending

surveys %>%
  filter(!is.na(weight)) %>%
  group_by(sex, species_id) %>%
  summarize(mean_weight = mean(weight),
            min_weight = min(weight)) %>%
  arrange(desc(mean_weight))

`summarise()` has grouped output by 'sex'. You can override using the `.groups`
argument.

# A tibble: 64 × 4
# Groups:   sex [3]
   sex   species_id mean_weight min_weight
   <chr> <chr>            <dbl>      <dbl>
 1 <NA>  NL               168.          83
 2 M     NL               166.          30
 3 F     NL               154.          32
 4 M     SS               130          130
 5 <NA>  SH               130          130
 6 M     DS               122.          12
 7 <NA>  DS               120           78
 8 F     DS               118.          45
 9 F     SH                78.8         30
10 F     SF                69           46
# ℹ 54 more rows
…
surveys |> 
  group_by(sex) |>
  summarize(counts = n())

# A tibble: 3 × 2
  sex   counts
  <chr>  <int>
1 F      15690
2 M      17348
3 <NA>    1748

surveys %>%
  count(sex, species,sort = T)

# A tibble: 81 × 3
   sex   species          n
   <chr> <chr>        <int>
 1 M     merriami      5969
 2 F     merriami      4554
 3 M     ordii         1707
 4 F     baileyi       1646
 5 F     penicillatus  1608
 6 M     penicillatus  1468
 7 M     megalotis     1349
 8 F     ordii         1308
 9 M     spectabilis   1270
10 M     baileyi       1216
# ℹ 71 more rows

surveys %>%
  count(sex, species) %>%
  arrange(species, desc(n))

# A tibble: 81 × 3
   sex   species             n
   <chr> <chr>           <int>
 1 F     albigula          675
 2 M     albigula          502
 3 <NA>  albigula           75
 4 <NA>  audubonii          75
 5 F     baileyi          1646
 6 M     baileyi          1216
 7 <NA>  baileyi            29
 8 <NA>  bilineata         303
 9 <NA>  brunneicapillus    50
10 <NA>  chlorurus          39
# ℹ 71 more rows
…
 [1] "record_id"       "month"           "day"             "year"           
 [5] "plot_id"         "species_id"      "sex"             "hindfoot_length"
 [9] "weight"          "genus"           "species"         "taxa"           
[13] "plot_type"      

surveys|>
    filter(!is.na(species_id) & !is.na(hindfoot_length) ) |>
  group_by(species_id) |>
  summarize(mean_hl = mean(hindfoot_length),
            min_hl = min(hindfoot_length),
            max_hl = max(hindfoot_length),
            counting = n())

# A tibble: 25 × 5
   species_id mean_hl min_hl max_hl counting
   <chr>        <dbl>  <dbl>  <dbl>    <int>
 1 AH            33       31     35        2
 2 BA            13        6     16       45
 3 DM            36.0     16     50     9972
 4 DO            35.6     26     64     2887
 5 DS            49.9     39     58     2132
 6 NL            32.3     21     70     1074
 7 OL            20.5     12     39      920
 8 OT            20.3     13     50     2139
 9 OX            19.1     13     21        8
10 PB            26.1      2     47     2864
# ℹ 15 more rows

Exercise

What was the heaviest animal measured in each year? Return the columns year, genus, species_id, and weight.

surveys |> 
  filter(!is.na(weight)) |>
  group_by(year) |>
  filter(weight == max(weight)) |>
    select(year, genus, species_id, weight) 

# A tibble: 27 × 4
# Groups:   year [26]
    year genus   species_id weight
   <dbl> <chr>   <chr>       <dbl>
 1  1979 Neotoma NL            274
 2  1986 Neotoma NL            240
 3  1987 Neotoma NL            278
 4  1988 Neotoma NL            248
 5  1992 Neotoma NL            220
 6  1995 Neotoma NL            171
 7  2000 Neotoma NL            265
 8  2002 Neotoma NL            248
 9  1978 Neotoma NL            232
10  1985 Neotoma NL            225
# ℹ 17 more rows
…
Reshape the surveys data frame with year as columns, plot_id as rows, and the number of genera per plot as the values. You will need to summarize before reshaping, and use the function n_distinct() to get the number of unique genera within a particular chunk of data. It’s a powerful function! See ?n_distinct for more.

surveys_wide_genera <- surveys %>%
  group_by(plot_id, year) %>%
  summarize(n_genera = n_distinct(genus)) %>%
  pivot_wider(names_from = year, values_from = n_genera)

`summarise()` has grouped output by 'plot_id'. You can override using the
`.groups` argument.

Now take that data frame and pivot_longer() it, so each row is a unique plot_id by year combination.

surveys_wide_genera |> pivot_longer(names_to = "year", values_to = "n_genera", cols = -plot_id)

# A tibble: 624 × 3
# Groups:   plot_id [24]
   plot_id year  n_genera
     <dbl> <chr>    <int>
 1       1 1977         2
 2       1 1978         3
 3       1 1979         4
 4       1 1980         7
 5       1 1981         5
 6       1 1982         6
 7       1 1983         7
 8       1 1984         6
 9       1 1985         4
10       1 1986         3
# ℹ 614 more rows

The surveys data set has two measurement columns: hindfoot_length and weight. This makes it difficult to do things like look at the relationship between mean values of each measurement per year in different plot types. Let's walk through a common solution for this type of problem. First, use pivot_longer() to create a dataset where we have a names column called measurement and a value column that takes on the value of either hindfoot_length or weight. Hint: You'll need to specify which columns will be part of the reshape.

surveys |> 
  filter(!is.na(hindfoot_length)) |> 
  filter(!is.na(weight)) |> 
  group_by(year) |>
  summarize( mean_hl = mean(hindfoot_length),
             mean_w = mean(weight)) |>
  pivot_longer(names_to = 'value',
               values_to = "measurement", cols = -year)

# A tibble: 52 × 3
    year value   measurement
   <dbl> <chr>         <dbl>
 1  1977 mean_hl        34.8
 2  1977 mean_w         46.4
 3  1978 mean_hl        37.4
 4  1978 mean_w         66.2
 5  1979 mean_hl        35.1
 6  1979 mean_w         63.2
 7  1980 mean_hl        35.0
 8  1980 mean_w         64.6
 9  1981 mean_hl        35.5
10  1981 mean_w         65.1
# ℹ 42 more rows

surveys_long <- surveys %>%
  pivot_longer(names_to = "measurement", values_to = "value", cols = c(hindfoot_length, weight))

surveys_long %>%
  group_by(year, measurement, plot_type) %>%
  summarize(mean_value = mean(value, na.rm=TRUE)) %>%
  pivot_wider(names_from = measurement, values_from = mean_value)

`summarise()` has grouped output by 'year', 'measurement'. You can override
using the `.groups` argument.

# A tibble: 130 × 4
# Groups:   year [26]
    year plot_type                 hindfoot_length weight
   <dbl> <chr>                               <dbl>  <dbl>
 1  1977 Control                              36.1   50.4
 2  1977 Long-term Krat Exclosure             33.7   34.8
 3  1977 Rodent Exclosure                     39.1   48.2
 4  1977 Short-term Krat Exclosure            35.8   41.3
 5  1977 Spectab exclosure                    37.2   47.1
 6  1978 Control                              38.1   70.8
 7  1978 Long-term Krat Exclosure             22.6   35.9
 8  1978 Rodent Exclosure                     37.8   67.3
 9  1978 Short-term Krat Exclosure            36.9   63.8
10  1978 Spectab exclosure                    42.3   80.1
# ℹ 120 more rows
